<svg width="40" height="41" viewBox="0 0 40 41" fill="none" xmlns="http://www.w3.org/2000/svg">
<path d="M20 40.201C31.0457 40.201 40 31.2017 40 20.1005C40 8.99931 31.0457 0 20 0C8.9543 0 0 8.99931 0 20.1005C0 31.2017 8.9543 40.201 20 40.201Z" fill="#42419A"/>
<path d="M20 9.73753C23.3482 9.73753 23.763 9.73753 25.0963 9.79709C26.3111 9.85664 26.9926 10.0651 27.437 10.2438C28.0296 10.482 28.4444 10.75 28.8889 11.1967C29.3333 11.6434 29.6 12.0603 29.837 12.6558C30.0148 13.1025 30.2222 13.7576 30.2815 15.0083C30.3407 16.3484 30.3407 16.7355 30.3407 20.1302C30.3407 23.525 30.3407 23.9121 30.2815 25.2522C30.2222 26.4731 30.0148 27.158 29.837 27.6047C29.6 28.2002 29.3333 28.6171 28.8889 29.0638C28.4444 29.5105 28.0296 29.7785 27.437 30.0167C26.9926 30.1954 26.3407 30.4038 25.0963 30.4634C23.763 30.523 23.3778 30.523 20 30.523C16.6519 30.523 16.237 30.523 14.9037 30.4634C13.6889 30.4038 13.0074 30.1954 12.563 30.0167C11.9704 29.7785 11.5556 29.5105 11.1111 29.0638C10.6667 28.6171 10.4 28.2002 10.163 27.6047C9.98519 27.158 9.77778 26.5029 9.71852 25.2522C9.65926 23.9121 9.65926 23.525 9.65926 20.1302C9.65926 16.7355 9.65926 16.3484 9.71852 15.0083C9.77778 13.7874 9.98519 13.1025 10.163 12.6558C10.4 12.0603 10.6667 11.6434 11.1111 11.1967C11.5556 10.75 11.9704 10.482 12.563 10.2438C13.0074 10.0651 13.6593 9.85664 14.9037 9.79709C16.237 9.73753 16.6519 9.73753 20 9.73753ZM20 7.44458C16.5926 7.44458 16.1482 7.44458 14.8148 7.53392C13.4815 7.59347 12.563 7.80192 11.763 8.12949C10.9333 8.45705 10.2222 8.87395 9.54074 9.58864C8.82963 10.3033 8.41482 10.9882 8.08889 11.822C7.76296 12.626 7.55556 13.5492 7.4963 14.8892C7.40741 16.2293 7.40741 16.6759 7.40741 20.1005C7.40741 23.525 7.40741 23.9717 7.4963 25.3117C7.55556 26.6517 7.76296 27.5749 8.08889 28.3789C8.41482 29.2127 8.82963 29.9274 9.54074 30.6123C10.2519 31.327 10.9333 31.7439 11.763 32.0714C12.563 32.399 13.4815 32.6075 14.8148 32.667C16.1482 32.7266 16.5926 32.7563 20 32.7563C23.4074 32.7563 23.8519 32.7563 25.1852 32.667C26.5185 32.6075 27.437 32.399 28.237 32.0714C29.0667 31.7439 29.7778 31.327 30.4593 30.6123C31.1704 29.8976 31.5852 29.2127 31.9111 28.3789C32.237 27.5749 32.4444 26.6517 32.5037 25.3117C32.563 23.9717 32.5926 23.525 32.5926 20.1005C32.5926 16.6759 32.5926 16.2293 32.5037 14.8892C32.4444 13.5492 32.237 12.626 31.9111 11.822C31.5852 10.9882 31.1704 10.2735 30.4593 9.58864C29.7482 8.87395 29.0667 8.45705 28.237 8.12949C27.437 7.80192 26.5185 7.59347 25.1852 7.53392C23.8519 7.44458 23.4074 7.44458 20 7.44458Z" fill="white"/>
<path d="M20 13.6086C16.4148 13.6086 13.5408 16.5269 13.5408 20.1004C13.5408 23.6738 16.4445 26.5921 20 26.5921C23.5852 26.5921 26.4593 23.6738 26.4593 20.1004C26.4593 16.5269 23.5852 13.6086 20 13.6086ZM20 24.3289C17.6889 24.3289 15.7926 22.4529 15.7926 20.1004C15.7926 17.7479 17.6593 15.8718 20 15.8718C22.3408 15.8718 24.2074 17.7479 24.2074 20.1004C24.2074 22.4529 22.3111 24.3289 20 24.3289Z" fill="white"/>
<path d="M26.726 14.8594C27.5605 14.8594 28.2371 14.1795 28.2371 13.3407C28.2371 12.502 27.5605 11.822 26.726 11.822C25.8914 11.822 25.2148 12.502 25.2148 13.3407C25.2148 14.1795 25.8914 14.8594 26.726 14.8594Z" fill="white"/>
</svg>
