<svg width="40" height="41" viewBox="0 0 40 41" fill="none" xmlns="http://www.w3.org/2000/svg">
<path d="M40 20.1005C40 8.99312 31.0519 0 20 0C8.94815 0 0 8.99312 0 20.1005C0 30.1359 7.31852 38.4441 16.8889 39.9628V25.9073H11.7926V20.1005H16.8592V15.6635C16.8592 10.6309 19.8518 7.83176 24.4148 7.83176C26.6074 7.83176 28.8889 8.21888 28.8889 8.21888V13.1621H26.3704C23.8815 13.1621 23.1111 14.7106 23.1111 16.2889V20.0707H28.6815L27.7926 25.9073H23.1407V39.9628C32.6815 38.4441 40 30.1359 40 20.1005Z" fill="#42419A"/>
<path d="M27.7926 25.9074L28.6815 20.1006H23.1407V16.3187C23.1407 14.7404 23.9111 13.1919 26.4 13.1919H28.9185V8.24869C28.9185 8.24869 26.637 7.86157 24.4445 7.86157C19.8815 7.86157 16.8889 10.631 16.8889 15.6933V20.1303H11.7926V25.9074H16.8593V39.9628C17.8667 40.1117 18.9333 40.2011 19.9704 40.2011C21.0074 40.2011 22.0741 40.1117 23.0815 39.9628V25.9074H27.7926Z" fill="white"/>
</svg>
