<svg width="41" height="41" viewBox="0 0 41 41" fill="none" xmlns="http://www.w3.org/2000/svg">
<path d="M20.0383 40.201C31.084 40.201 40.0383 31.2017 40.0383 20.1005C40.0383 8.99931 31.084 0 20.0383 0C8.99263 0 0.0383301 8.99931 0.0383301 20.1005C0.0383301 31.2017 8.99263 40.201 20.0383 40.201Z" fill="#42419A"/>
<path d="M16.0087 31.6843C25.7865 31.6843 31.1198 23.5547 31.1198 16.4972C31.1198 16.259 31.1198 16.0505 31.0902 15.8123C32.1272 15.0678 33.0161 14.1149 33.7272 13.0429C32.7791 13.4598 31.742 13.7576 30.6753 13.8767C31.7716 13.2216 32.6013 12.1793 33.0161 10.9286C31.9791 11.554 30.8531 11.9709 29.6383 12.2389C28.6605 11.1966 27.2976 10.5415 25.7568 10.5415C22.8235 10.5415 20.4531 12.9238 20.4531 15.8719C20.4531 16.2888 20.5124 16.7057 20.6013 17.0928C16.1865 16.8843 12.2753 14.7403 9.66794 11.5242C9.22349 12.2984 8.95683 13.2216 8.95683 14.2043C8.95683 16.0505 9.90498 17.6884 11.3272 18.6413C10.4679 18.6115 9.63831 18.3733 8.9272 17.9861C8.9272 18.0159 8.9272 18.0159 8.9272 18.0457C8.9272 20.6364 10.7642 22.7805 13.1939 23.2867C12.7494 23.4058 12.2754 23.4654 11.8013 23.4654C11.4457 23.4654 11.1198 23.4356 10.7939 23.3761C11.4753 25.4903 13.4309 27.0388 15.742 27.0686C13.9346 28.498 11.6235 29.3615 9.13461 29.3615C8.71979 29.3615 8.27535 29.3318 7.86053 29.302C10.2013 30.7909 12.9865 31.6843 16.0087 31.6843Z" fill="white"/>
</svg>
